  -5.0000000e+00   3.7396865e+00
  -4.8989899e+00   3.2158734e+00
  -4.7979798e+00   3.1724571e+00
  -4.6969697e+00   2.6251711e+00
  -4.5959596e+00   2.1429582e+00
  -4.4949495e+00   2.2005214e+00
  -4.3939394e+00   1.8057628e+00
  -4.2929293e+00   1.2337657e+00
  -4.1919192e+00   9.5010453e-01
  -4.0909091e+00   6.0357423e-01
  -3.9898990e+00   3.1653716e-02
  -3.8888889e+00  -1.9137329e-01
  -3.7878788e+00  -3.4072421e-01
  -3.6868687e+00  -7.5458018e-01
  -3.5858586e+00  -5.4589522e-01
  -3.4848485e+00  -1.1952660e+00
  -3.3838384e+00  -1.3403757e+00
  -3.2828283e+00  -1.5169887e+00
  -3.1818182e+00  -1.5852347e+00
  -3.0808081e+00  -1.5172906e+00
  -2.9797980e+00  -1.6514756e+00
  -2.8787879e+00  -1.2391727e+00
  -2.7777778e+00  -1.5703569e+00
  -2.6767677e+00  -1.6984248e+00
  -2.5757576e+00  -1.1219644e+00
  -2.4747475e+00  -9.6968601e-01
  -2.3737374e+00  -1.2225066e+00
  -2.2727273e+00  -1.3020120e+00
  -2.1717172e+00  -1.0271474e+00
  -2.0707071e+00  -7.2987180e-01
  -1.9696970e+00  -3.9038742e-01
  -1.8686869e+00  -3.9940859e-01
  -1.7676768e+00   7.4791095e-02
  -1.6666667e+00   3.9539135e-01
  -1.5656566e+00   3.0347417e-01
  -1.4646465e+00   4.8405606e-01
  -1.3636364e+00   8.6294985e-01
  -1.2626263e+00   1.1285371e+00
  -1.1616162e+00   1.4460625e+00
  -1.0606061e+00   1.7390382e+00
  -9.5959596e-01   1.6655239e+00
  -8.5858586e-01   1.9964803e+00
  -7.5757576e-01   2.5628614e+00
  -6.5656566e-01   2.1918966e+00
  -5.5555556e-01   2.9685737e+00
  -4.5454545e-01   2.9521702e+00
  -3.5353535e-01   2.8793927e+00
  -2.5252525e-01   3.0111289e+00
  -1.5151515e-01   2.8122058e+00
  -5.0505051e-02   2.9774763e+00
   5.0505051e-02   3.3102292e+00
   1.5151515e-01   2.9679178e+00
   2.5252525e-01   2.8683412e+00
   3.5353535e-01   2.5536771e+00
   4.5454545e-01   2.5920540e+00
   5.5555556e-01   2.5161116e+00
   6.5656566e-01   2.3565118e+00
   7.5757576e-01   1.9337334e+00
   8.5858586e-01   1.6655140e+00
   9.5959596e-01   1.8290301e+00
   1.0606061e+00   8.7293953e-01
   1.1616162e+00   1.1576156e+00
   1.2626263e+00   8.5380096e-01
   1.3636364e+00   4.3614049e-01
   1.4646465e+00  -3.9706133e-01
   1.5656566e+00  -6.3410320e-01
   1.6666667e+00  -9.3713180e-01
   1.7676768e+00  -1.0506573e+00
   1.8686869e+00  -1.7824818e+00
   1.9696970e+00  -1.7187593e+00
   2.0707071e+00  -2.4853742e+00
   2.1717172e+00  -2.4269906e+00
   2.2727273e+00  -2.8484429e+00
   2.3737374e+00  -2.9413604e+00
   2.4747475e+00  -3.2586253e+00
   2.5757576e+00  -3.3768617e+00
   2.6767677e+00  -3.6119583e+00
   2.7777778e+00  -4.2018606e+00
   2.8787879e+00  -4.1193302e+00
   2.9797980e+00  -4.6139245e+00
   3.0808081e+00  -4.8452608e+00
   3.1818182e+00  -4.4296947e+00
   3.2828283e+00  -4.6537569e+00
   3.3838384e+00  -4.6903438e+00
   3.4848485e+00  -4.3850768e+00
   3.5858586e+00  -4.5537404e+00
   3.6868687e+00  -4.4816166e+00
   3.7878788e+00  -4.2179751e+00
   3.8888889e+00  -4.1350868e+00
   3.9898990e+00  -4.1500567e+00
   4.0909091e+00  -4.2580310e+00
   4.1919192e+00  -4.0301462e+00
   4.2929293e+00  -3.3717002e+00
   4.3939394e+00  -3.7510978e+00
   4.4949495e+00  -3.1946700e+00
   4.5959596e+00  -3.1768993e+00
   4.6969697e+00  -2.3596287e+00
   4.7979798e+00  -2.2925465e+00
   4.8989899e+00  -2.1873973e+00
   5.0000000e+00  -1.9569289e+00
